%YAML 1.1
%TAG !u! tag:unity3d.com,2011:
--- !u!1 &148936
GameObject:
  m_ObjectHideFlags: 0
  m_PrefabParentObject: {fileID: 0}
  m_PrefabInternal: {fileID: 100100000}
  serializedVersion: 4
  m_Component:
  - 4: {fileID: 431898}
  - 114: {fileID: 11420890}
  m_Layer: 0
  m_Name: LeaderboardManager
  m_TagString: Untagged
  m_Icon: {fileID: 0}
  m_NavMeshLayer: 0
  m_StaticEditorFlags: 0
  m_IsActive: 1
--- !u!4 &431898
Transform:
  m_ObjectHideFlags: 1
  m_PrefabParentObject: {fileID: 0}
  m_PrefabInternal: {fileID: 100100000}
  m_GameObject: {fileID: 148936}
  m_LocalRotation: {x: 0, y: 0, z: 0, w: 1}
  m_LocalPosition: {x: 0, y: 0, z: 0}
  m_LocalScale: {x: 1, y: 1, z: 1}
  m_Children: []
  m_Father: {fileID: 0}
  m_RootOrder: 0
--- !u!114 &11420890
MonoBehaviour:
  m_ObjectHideFlags: 1
  m_PrefabParentObject: {fileID: 0}
  m_PrefabInternal: {fileID: 100100000}
  m_GameObject: {fileID: 148936}
  m_Enabled: 1
  m_EditorHideFlags: 0
  m_Script: {fileID: 11500000, guid: 64a1dc5378125984cb4ea93f88b28bd4, type: 3}
  m_Name: 
  m_EditorClassIdentifier: 
  playerScoreColor: {r: 0.14922144, g: 0.6764706, b: 0.32739535, a: 1}
  leaderboardLayoutPrefab: {fileID: 11424282, guid: dafb290038c088640adc9c427487b77e,
    type: 2}
  highscorePanel: {fileID: 0}
  highscoreEntriesPanel: {fileID: 0}
  loadingText: {fileID: 0}
  levelTabBarPanel: {fileID: 0}
  levelTabButtonPrefab: {fileID: 11473520, guid: 2799bc9417b2dbc46b051be3375b6f80,
    type: 2}
  isLeaderboardGeneralMenu: 1
--- !u!1001 &100100000
Prefab:
  m_ObjectHideFlags: 1
  serializedVersion: 2
  m_Modification:
    m_TransformParent: {fileID: 0}
    m_Modifications: []
    m_RemovedComponents: []
  m_ParentPrefab: {fileID: 0}
  m_RootGameObject: {fileID: 148936}
  m_IsPrefabParent: 1
